<svg xmlns="http://www.w3.org/2000/svg" width="64" height="64" viewBox="0 0 64 64">
<path d="M36 31c7.5-1.3 11.9-11.7 4.8-16.7-6.8-4.7-15.3-1.5-22 1.2l3.4 6c3.6-.9 6.8-3.6 10.8-2.4 3.5 1 4.3 5.6 1.3 7.8-2.7 2-6.7 1.6-10 1.6v6.4c3.5 0 8-.7 10.9 1.5 3.5 2.7 1 7.7-2.6 8.8-5.2 1.6-10-.6-14.3-2l.3 6.7s5.3 1.7 7 1.9c5.9.6 13.5.6 17.7-4.4 5.4-6.4 1-16-7.2-16z" fill="#fff"/>
</svg>
